For n_iter = 121
mean 0.014385746059963945
var 6.233545804022479e-06
stderr 0.00022697336291129002
min, max 0.009961222170123617 0.023131309027316638

group size 3
mean 0.014014327621558641
var 3.005898616189911e-06
stderr 0.0001576138868370537
min, max 0.01230815420964514 0.018740093136599575

group size 5
mean 0.013882093064072022
var 2.1897505372658364e-06
stderr 0.00013452550642249986
min, max 0.012339988139281808 0.017958510314189647

group size 7
mean 0.013821320146886832
var 1.2368902491290229e-06
stderr 0.00010110506151462558
min, max 0.01265347842387372 0.017151983066468417

group size 11
mean 0.013518910760786103
var 5.872818215060068e-07
stderr 6.966755896955853e-05
min, max 0.012665556904752281 0.015042777553483136

